…
### Comparing All Pairs of Stratified Estimates

For stratified analyses, we can compare all pairs of strata at once.
This is particularly useful when we have multiple groups and want a
comprehensive view of all pairwise differences:

``` r
# Compare all pairs of country-age combinations
comparisons_table <- compare_seroincidence(est_country_age)

# Display the results
print(comparisons_table)
#> # A tibble: 36 × 14
#>    Stratum_1 Stratum_2 Country.1  ageCat.1 Country.2  ageCat.2 incidence.rate.1
#>  * <chr>     <chr>     <chr>      <fct>    <chr>      <fct>               <dbl>
#>  1 Stratum 1 Stratum 2 Bangladesh <5       Bangladesh 5-15                0.400
#>  2 Stratum 1 Stratum 3 Bangladesh <5       Bangladesh 16+                 0.400
#>  3 Stratum 1 Stratum 4 Bangladesh <5       Nepal      <5                  0.400
#>  4 Stratum 1 Stratum 5 Bangladesh <5       Nepal      5-15                0.400
#>  5 Stratum 1 Stratum 6 Bangladesh <5       Nepal      16+                 0.400
#>  6 Stratum 1 Stratum 7 Bangladesh <5       Pakistan   <5                  0.400
#>  7 Stratum 1 Stratum 8 Bangladesh <5       Pakistan   5-15                0.400
#>  8 Stratum 1 Stratum 9 Bangladesh <5       Pakistan   16+                 0.400
#>  9 Stratum 2 Stratum 3 Bangladesh 5-15     Bangladesh 16+                 0.477
#> 10 Stratum 2 Stratum 4 Bangladesh 5-15     Nepal      <5                  0.477
#> # ℹ 26 more rows
#> # ℹ 7 more variables: incidence.rate.2 <dbl>, difference <dbl>, SE <dbl>,
#> #   z.statistic <dbl>, p.value <dbl>, CI.lwr <dbl>, CI.upr <dbl>
```
…
