Generate a simulated cross-sectional sample and estimate seroincidence • serocalculator
…
print(sim_df)
#> # A tibble: 24,000 × 6
#>      age id    antigen_iso value lambda.sim cluster
#>    <dbl> <chr> <chr>       <dbl>      <dbl>   <int>
#>  1  3.53 1     HlyE_IgA    0.842       0.05       1
#>  2  3.53 1     HlyE_IgG    0.767       0.05       1
#>  3  2.27 2     HlyE_IgA    0.428       0.05       1
#>  4  2.27 2     HlyE_IgG    0.544       0.05       1
#>  5  9.05 3     HlyE_IgA    0.528       0.05       1
#>  6  9.05 3     HlyE_IgG    0.768       0.05       1
#>  7  5.94 4     HlyE_IgA    0.412       0.05       1
#>  8  5.94 4     HlyE_IgG    0.683       0.05       1
#>  9  9.88 5     HlyE_IgA    0.467       0.05       1
#> 10  9.88 5     HlyE_IgG    0.285       0.05       1
#> # ℹ 23,990 more rows
…
#> Warning in sqrt(var_log_lambda): NaNs produced
#> Warning in sqrt(var_log_lambda): NaNs produced
#> Warning in sqrt(var_log_lambda): NaNs produced
#> Warning in sqrt(var_log_lambda): NaNs produced
#> Warning in sqrt(var_log_lambda): NaNs produced
#> Warning in sqrt(var_log_lambda): NaNs produced
#> Warning in sqrt(var_log_lambda): NaNs produced
#> Warning in sqrt(var_log_lambda): NaNs produced
#> Warning in sqrt(var_log_lambda): NaNs produced
#> Seroincidence estimated given the following setup:
#> a) Antigen isotypes   : HlyE_IgG, HlyE_IgA 
#> b) Strata       : lambda.sim, cluster 
#> 
#>  Seroincidence estimates:
#> # A tibble: 120 × 14
#>    Stratum  lambda.sim cluster     n est.start incidence.rate        SE   CI.lwr
#>    <chr>         <dbl>   <int> <int>     <dbl>          <dbl>     <dbl>    <dbl>
#>  1 Stratum…       0.05       1   100       0.1         0.0741   0.0111    0.0552
#>  2 Stratum…       0.05       2   100       0.1         0.0605   0.00992   0.0438
#>  3 Stratum…       0.05       3   100       0.1         0.0553   0.00952   0.0395
#>  4 Stratum…       0.05       4   100       0.1         0.0535   0.00930   0.0381
#>  5 Stratum…       0.05       5   100       0.1         0.0522   0.00898   0.0372
#>  6 Stratum…       0.05       6   100       0.1         0.0320   0.00697   0.0209
#>  7 Stratum…       0.05       7   100       0.1         0.0509   0.00932   0.0356
#>  8 Stratum…       0.05       8   100       0.1         0.0373   0.00747   0.0252
#>  9 Stratum…       0.05       9   100       0.1         0.0362   0.00704   0.0248
#> 10 Stratum…       0.05      10   100       0.1         0.0771 NaN       NaN     
#> # ℹ 110 more rows
#> # ℹ 6 more variables: CI.upr <dbl>, coverage <dbl>, log.lik <dbl>,
#> #   iterations <int>, antigen.isos <chr>, nlm.convergence.code <ord>
…
nlm() convergence codes

Make sure to check the nlm() exit codes (codes 3-5 indicate possible non-convergence):

ests_summary |>
  as_tibble() |> # removes extra meta-data
  select(Stratum, nlm.convergence.code) |>
  filter(nlm.convergence.code > 2)
#> # A tibble: 25 × 2
#>    Stratum    nlm.convergence.code
#>    <chr>      <ord>               
#>  1 Stratum 10 3                   
#>  2 Stratum 15 3                   
#>  3 Stratum 16 3                   
#>  4 Stratum 17 3                   
#>  5 Stratum 28 3                   
#>  6 Stratum 30 3                   
#>  7 Stratum 34 3                   
#>  8 Stratum 37 3                   
#>  9 Stratum 43 3                   
#> 10 Stratum 45 3                   
#> # ℹ 15 more rows
…
