Simulation studies • serocalculator
…
print(sim_df)
#> # A tibble: 24,000 × 7
#>      age id    antigen_iso value lambda.sim sample_size cluster
#>    <dbl> <chr> <chr>       <dbl>      <dbl>       <dbl>   <int>
#>  1  3.53 1     HlyE_IgA    0.853       0.05         100       1
#>  2  3.53 1     HlyE_IgG    0.668       0.05         100       1
#>  3  2.27 2     HlyE_IgA    0.587       0.05         100       1
#>  4  2.27 2     HlyE_IgG    0.359       0.05         100       1
#>  5  9.05 3     HlyE_IgA    0.367       0.05         100       1
#>  6  9.05 3     HlyE_IgG    0.412       0.05         100       1
#>  7  5.94 4     HlyE_IgA    0.648       0.05         100       1
#>  8  5.94 4     HlyE_IgG    0.606       0.05         100       1
#>  9  9.88 5     HlyE_IgA    0.363       0.05         100       1
#> 10  9.88 5     HlyE_IgG    0.516       0.05         100       1
#> # ℹ 23,990 more rows
…
summary(ests) produces a tibble() with some extra meta-data:

ests_summary <- ests |> summary() |> print()
#> Seroincidence estimated given the following setup:
#> a) Antigen isotypes   : HlyE_IgG, HlyE_IgA 
#> b) Strata       : sample_size, lambda.sim, cluster 
#> 
#>  Seroincidence estimates:
#> # A tibble: 120 × 16
#>    Stratum sample_size lambda.sim cluster     n est.start incidence.rate      SE
#>    <chr>         <dbl>      <dbl>   <int> <int>     <dbl>          <dbl>   <dbl>
#>  1 Stratu…         100       0.05       1   100       0.1         0.0538 0.00958
#>  2 Stratu…         100       0.05       2   100       0.1         0.0462 0.00869
#>  3 Stratu…         100       0.05       3   100       0.1         0.0446 0.00801
#>  4 Stratu…         100       0.05       4   100       0.1         0.0475 0.00819
#>  5 Stratu…         100       0.05       5   100       0.1         0.0560 0.00930
#>  6 Stratu…         100       0.05       6   100       0.1         0.0569 0.00961
#>  7 Stratu…         100       0.05       7   100       0.1         0.0392 0.00743
#>  8 Stratu…         100       0.05       8   100       0.1         0.0698 0.0108 
#>  9 Stratu…         100       0.05       9   100       0.1         0.0557 0.00947
#> 10 Stratu…         100       0.05      10   100       0.1         0.0416 0.00805
#> # ℹ 110 more rows
#> # ℹ 8 more variables: CI.lwr <dbl>, CI.upr <dbl>, se_type <chr>,
#> #   coverage <dbl>, log.lik <dbl>, iterations <int>, antigen.isos <chr>,
#> #   nlm.convergence.code <ord>
…
