Generate a simulated cross-sectional sample and estimate seroincidence • serocalculator
…
print(sim_df)
#> # A tibble: 6,000 × 6
#>      age id    antigen_iso value lambda.sim cluster
#>    <dbl> <chr> <chr>       <dbl>      <dbl>   <int>
#>  1  3.53 1     HlyE_IgA    0.842       0.05       1
#>  2  3.53 1     HlyE_IgG    0.767       0.05       1
#>  3  2.27 2     HlyE_IgA    0.428       0.05       1
#>  4  2.27 2     HlyE_IgG    0.544       0.05       1
#>  5  9.05 3     HlyE_IgA    0.528       0.05       1
#>  6  9.05 3     HlyE_IgG    0.768       0.05       1
#>  7  5.94 4     HlyE_IgA    0.412       0.05       1
#>  8  5.94 4     HlyE_IgG    0.683       0.05       1
#>  9  9.88 5     HlyE_IgA    0.467       0.05       1
#> 10  9.88 5     HlyE_IgG    0.285       0.05       1
#> # ℹ 5,990 more rows
…
summary(ests) produces a tibble() with some
extra meta-data:

ests_summary <- ests |> summary() |> print()
#> Warning in sqrt(var_log_lambda): NaNs produced
#> Warning in sqrt(var_log_lambda): NaNs produced
#> Seroincidence estimated given the following setup:
#> a) Antigen isotypes   : HlyE_IgG, HlyE_IgA 
#> b) Strata       : lambda.sim, cluster 
#> 
#>  Seroincidence estimates:
#> # A tibble: 30 × 14
#>    Stratum    lambda.sim cluster     n est.start incidence.rate      SE CI.lwr
#>    <chr>           <dbl>   <int> <int>     <dbl>          <dbl>   <dbl>  <dbl>
#>  1 Stratum 1        0.05       1   100       0.1         0.0741 0.0111  0.0552
#>  2 Stratum 2        0.05       2   100       0.1         0.0605 0.00992 0.0438
#>  3 Stratum 3        0.05       3   100       0.1         0.0553 0.00952 0.0395
#>  4 Stratum 4        0.05       4   100       0.1         0.0535 0.00930 0.0381
#>  5 Stratum 5        0.05       5   100       0.1         0.0522 0.00898 0.0372
#>  6 Stratum 6        0.1        1   100       0.1         0.0928 0.0131  0.0703
#>  7 Stratum 7        0.1        2   100       0.1         0.0808 0.0123  0.0600
#>  8 Stratum 8        0.1        3   100       0.1         0.0864 0.0547  0.0250
#>  9 Stratum 9        0.1        4   100       0.1         0.0735 0.0112  0.0545
#> 10 Stratum 10       0.1        5   100       0.1         0.117  0.0149  0.0911
#> # ℹ 20 more rows
#> # ℹ 6 more variables: CI.upr <dbl>, coverage <dbl>, log.lik <dbl>,
#> #   iterations <int>, antigen.isos <chr>, nlm.convergence.code <ord>
…
