Enteric Fever Seroincidence Vignette – serocalculator
…
The output follows the standard htest format in R, providing the z-statistic, p-value, estimates for both groups, and a confidence interval for the difference in incidence rates.

5.2 Comparing All Pairs of Stratified Estimates

For stratified analyses, we can compare all pairs of strata at once. This is particularly useful when we have multiple groups and want a comprehensive view of all pairwise differences:

#> # A tibble: 36 × 14
#>    Stratum_1 Stratum_2 Country.1  ageCat.1 Country.2  ageCat.2 incidence.rate.1
#>  * <chr>     <chr>     <chr>      <fct>    <chr>      <fct>               <dbl>
#>  1 Stratum 1 Stratum 2 Bangladesh <5       Bangladesh 5-15                0.567
#>  2 Stratum 1 Stratum 3 Bangladesh <5       Bangladesh 16+                 0.567
#>  3 Stratum 1 Stratum 4 Bangladesh <5       Nepal      <5                  0.567
#>  4 Stratum 1 Stratum 5 Bangladesh <5       Nepal      5-15                0.567
#>  5 Stratum 1 Stratum 6 Bangladesh <5       Nepal      16+                 0.567
#>  6 Stratum 1 Stratum 7 Bangladesh <5       Pakistan   <5                  0.567
#>  7 Stratum 1 Stratum 8 Bangladesh <5       Pakistan   5-15                0.567
#>  8 Stratum 1 Stratum 9 Bangladesh <5       Pakistan   16+                 0.567
#>  9 Stratum 2 Stratum 3 Bangladesh 5-15     Bangladesh 16+                 0.606
#> 10 Stratum 2 Stratum 4 Bangladesh 5-15     Nepal      <5                  0.606
#> # ℹ 26 more rows
#> # ℹ 7 more variables: incidence.rate.2 <dbl>, difference <dbl>, SE <dbl>,
#> #   z.statistic <dbl>, p.value <dbl>, CI.lwr <dbl>, CI.upr <dbl>
…
