Simulation studies – serocalculator
…
2 Simulate multiple clusters with different lambdas

#> [1] 3

In the preceding code chunk, we have determined that we can use 3 CPU cores to run computations in parallel.

#> # A tibble: 24,000 × 7
#>      age id    antigen_iso value lambda.sim sample_size cluster
#>    <dbl> <chr> <chr>       <dbl>      <dbl>       <dbl>   <int>
#>  1  3.53 1     HlyE_IgA    0.725       0.05         100       1
#>  2  3.53 1     HlyE_IgG    0.749       0.05         100       1
#>  3  2.27 2     HlyE_IgA    0.647       0.05         100       1
#>  4  2.27 2     HlyE_IgG    0.382       0.05         100       1
#>  5  9.05 3     HlyE_IgA    0.176       0.05         100       1
#>  6  9.05 3     HlyE_IgG    0.585       0.05         100       1
#>  7  5.94 4     HlyE_IgA    0.845       0.05         100       1
#>  8  5.94 4     HlyE_IgG    0.744       0.05         100       1
#>  9  9.88 5     HlyE_IgA    0.644       0.05         100       1
#> 10  9.88 5     HlyE_IgG    0.292       0.05         100       1
#> # ℹ 23,990 more rows
…
2.1 Estimate incidence in each cluster

summary(ests) produces a tibble() with some extra meta-data:

#> Seroincidence estimated given the following setup:
#> a) Antigen isotypes   : HlyE_IgG, HlyE_IgA 
#> b) Strata       : sample_size, lambda.sim, cluster 
#> 
#>  Seroincidence estimates:
#> # A tibble: 120 × 16
#>    Stratum sample_size lambda.sim cluster     n est.start incidence.rate      SE
#>    <chr>         <dbl>      <dbl>   <int> <int>     <dbl>          <dbl>   <dbl>
#>  1 Stratu…         100       0.05       1   100       0.1         0.0853 0.0124 
#>  2 Stratu…         100       0.05       2   100       0.1         0.0480 0.00863
#>  3 Stratu…         100       0.05       3   100       0.1         0.0537 0.00899
#>  4 Stratu…         100       0.05       4   100       0.1         0.0432 0.00834
#>  5 Stratu…         100       0.05       5   100       0.1         0.0455 0.00824
#>  6 Stratu…         100       0.05       6   100       0.1         0.0630 0.0105 
#>  7 Stratu…         100       0.05       7   100       0.1         0.0622 0.0101 
#>  8 Stratu…         100       0.05       8   100       0.1         0.0470 0.00844
#>  9 Stratu…         100       0.05       9   100       0.1         0.0338 0.00722
#> 10 Stratu…         100       0.05      10   100       0.1         0.0714 0.0108 
#> # ℹ 110 more rows
#> # ℹ 8 more variables: CI.lwr <dbl>, CI.upr <dbl>, se_type <chr>,
#> #   coverage <dbl>, log.lik <dbl>, iterations <int>, antigen.isos <chr>,
#> #   nlm.convergence.code <ord>
…
