Generate a simulated cross-sectional sample and estimate seroincidence • serocalculator
…
print(sim_df)
#> # A tibble: 24,000 × 6
#>    id      age antigen_iso  value lambda.sim cluster
#>    <chr> <dbl> <chr>        <dbl>      <dbl>   <int>
#>  1 1      4.79 HlyE_IgA    0.143        0.05       1
#>  2 1      4.79 HlyE_IgG    0.0166       0.05       1
#>  3 2      2.54 HlyE_IgA    0.0511       0.05       1
#>  4 2      2.54 HlyE_IgG    0.373        0.05       1
#>  5 3      4.10 HlyE_IgA    0.108        0.05       1
#>  6 3      4.10 HlyE_IgG    0.0985       0.05       1
#>  7 4      6.70 HlyE_IgA    0.380        0.05       1
#>  8 4      6.70 HlyE_IgG    0.222        0.05       1
#>  9 5      3.77 HlyE_IgA    0.371        0.05       1
#> 10 5      3.77 HlyE_IgG    0.184        0.05       1
#> # ℹ 23,990 more rows
…
summary(ests) produces a tibble() with some extra meta-data:

ests_summary <- ests |> summary() |> print()
#> Seroincidence estimated given the following setup:
#> a) Antigen isotypes   : HlyE_IgG, HlyE_IgA 
#> b) Strata       : lambda.sim, cluster 
#> 
#>  Seroincidence estimates:
#> # A tibble: 120 × 14
#>    Stratum    lambda.sim cluster     n est.start incidence.rate      SE CI.lwr
#>    <chr>           <dbl>   <int> <int>     <dbl>          <dbl>   <dbl>  <dbl>
#>  1 Stratum 1        0.05       1   100       0.1         0.0697 0.0113  0.0507
#>  2 Stratum 2        0.05       2   100       0.1         0.0808 0.0128  0.0593
#>  3 Stratum 3        0.05       3   100       0.1         0.0971 0.0147  0.0721
#>  4 Stratum 4        0.05       4   100       0.1         0.0611 0.0106  0.0435
#>  5 Stratum 5        0.05       5   100       0.1         0.0692 0.0112  0.0504
#>  6 Stratum 6        0.05       6   100       0.1         0.0681 0.0115  0.0489
#>  7 Stratum 7        0.05       7   100       0.1         0.0638 0.0111  0.0454
#>  8 Stratum 8        0.05       8   100       0.1         0.0959 0.0148  0.0709
#>  9 Stratum 9        0.05       9   100       0.1         0.0537 0.00976 0.0376
#> 10 Stratum 10       0.05      10   100       0.1         0.0914 0.0142  0.0674
#> # ℹ 110 more rows
#> # ℹ 6 more variables: CI.upr <dbl>, coverage <dbl>, log.lik <dbl>,
#> #   iterations <int>, antigen.isos <chr>, nlm.convergence.code <ord>
…
