Generate a simulated cross-sectional sample and estimate seroincidence • serocalculator
…
      lambda = l,
      n.smpl = nrep,
      age.rng = lifespan,
      antigen_isos = antibodies,
      n.mc = 0,
      renew.params = TRUE,
      add.noise = TRUE,
      curve_params = dmcmc,
      noise_limits = dlims,
      baseline_limits = blims
    ) %>% 
      mutate(lambda.sim = l, cluster = n) 
  }
print(sim.df)
#> # A tibble: 5,000 × 5
#>      age HlyE_IgA HlyE_IgG lambda.sim cluster
#>    <dbl>    <dbl>    <dbl>      <dbl>   <int>
#>  1 15.9     2.06  1051.          0.05       1
#>  2 14.7     0.461    0.144       0.05       1
#>  3 13.5     0.746    0.491       0.05       1
#>  4  0.76    0.583    0.371       0.05       1
#>  5  6.94    0.426    0.253       0.05       1
#>  6 12.3     0.618    0.341       0.05       1
#>  7 14.8     0.260    0.636       0.05       1
#>  8  1.3     0.723    0.543       0.05       1
#>  9 10.5     0.561    0.311       0.05       1
#> 10 18.2     0.796    6.89        0.05       1
#> # ℹ 4,990 more rows
…
summary(ests)
#> Seroincidence estimated given the following setup:
#> a) Antibodies   : HlyE_IgG, HlyE_IgA 
#> b) Strata       : lambda.sim, cluster, n, Stratum 
#> 
#>  Seroincidence estimates:
#> # A tibble: 50 × 12
#>    Stratum    lambda.sim cluster     n est.start incidence.rate     SE CI.lwr
#>    <chr>           <dbl>   <int> <int>     <dbl>          <dbl>  <dbl>  <dbl>
#>  1 Stratum 1        0.05       1   100   0.00274         0.0639 0.134  0.0491
#>  2 Stratum 2        0.05       2   100   0.00274         0.0513 0.147  0.0385
#>  3 Stratum 3        0.05       3   100   0.00274         0.0668 0.130  0.0518
#>  4 Stratum 4        0.05       4   100   0.00274         0.0395 0.152  0.0293
#>  5 Stratum 5        0.05       5   100   0.00274         0.0592 0.0454 0.0542
#>  6 Stratum 6        0.05       6   100   0.00274         0.0585 0.132  0.0451
#>  7 Stratum 7        0.05       7   100   0.00274         0.0558 0.139  0.0425
#>  8 Stratum 8        0.05       8   100   0.00274         0.0846 0.121  0.0668
#>  9 Stratum 9        0.05       9   100   0.00274         0.0582 0.138  0.0444
#> 10 Stratum 10       0.05      10   100   0.00274         0.0417 0.153  0.0309
#> # ℹ 40 more rows
#> # ℹ 4 more variables: CI.upr <dbl>, coverage <dbl>, log.lik <dbl>,
#> #   iterations <int>
…
